Division,WeightClassKg,Place,Name,Team,BodyweightKg,Best3SquatKg,Best3BenchKg,Best3DeadliftKg,TotalKg,Equipment,Event,Sex
Boys,51.71,1,Preston Fox,Lampasas,51.66,131.54,92.99,147.42,371.95,Single-ply,SBD,M
Boys,51.71,2,Eli DeHoyos,Brady,49.35,129.27,81.65,158.76,369.68,Single-ply,SBD,M
Boys,51.71,3,Nathan Jeter,Rockdale,49.49,86.18,49.9,99.79,235.87,Single-ply,SBD,M
Boys,51.71,4,Luke Keller,Llano,48.4,74.84,56.7,99.79,231.33,Single-ply,SBD,M
Boys,51.71,5,Junior Neri,Comfort,47.22,92.99,,,92.99,Single-ply,S,M
Boys,55.79,1,Kyle Arriola,Lampasas,55.57,124.74,88.45,138.35,351.53,Single-ply,SBD,M
Boys,55.79,2,Marshall Schmitz,Brady,54.66,136.08,72.57,138.35,347,Single-ply,SBD,M
Boys,55.79,3,Ashton Henderson,Brady,55.34,115.67,74.84,142.88,333.39,Single-ply,SBD,M
Boys,55.79,4,Hunter McCoy,Burnet,55.11,115.67,,,115.67,Single-ply,S,M
Boys,59.87,1,Layne Rash,Rockdale,59.78,124.74,74.84,133.81,333.39,Single-ply,SBD,M
Boys,59.87,2,Brandon Sisson,Bangs,58.15,106.59,65.77,138.35,310.71,Single-ply,SBD,M
Boys,59.87,DQ,Cade White,Lampasas,59.65,,,,,Single-ply,SBD,M
Boys,67.13,1,Quint Pincelli,Llano,65.95,156.49,106.59,185.97,449.06,Single-ply,SBD,M
Boys,67.13,2,Ryan Jackson,Burnet,65.09,170.1,111.13,165.56,446.79,Single-ply,SBD,M
Boys,67.13,3,Seth Anderson,Bangs,66.04,170.1,97.52,163.29,430.91,Single-ply,SBD,M
Boys,67.13,4,Koby Allen,Lampasas,67.09,158.76,95.25,165.56,419.57,Single-ply,SBD,M
Boys,67.13,5,Reed Saint,San Saba,66.72,147.42,83.91,172.37,403.7,Single-ply,SBD,M
Boys,67.13,6,Carson Elston,Stephenville,64.05,136.08,90.72,158.76,385.55,Single-ply,SBD,M
Boys,67.13,7,Gerardo Murillo,Burnet,66.86,142.88,92.99,147.42,383.29,Single-ply,SBD,M
Boys,67.13,8,Benjamin Galindo,Brady,62.69,142.88,81.65,147.42,371.95,Single-ply,SBD,M
Boys,67.13,9,Brandon Robinson,Bangs,64.86,127.01,86.18,158.76,371.95,Single-ply,SBD,M
Boys,67.13,10,Caleb Galindo,Brady,63.96,136.08,81.65,149.69,367.41,Single-ply,SBD,M
Boys,67.13,11,Charlie Hughes,Stephenville,65.18,129.27,86.18,147.42,362.87,Single-ply,SBD,M
Boys,67.13,12,Zach Hibbs,Marble Falls,65.41,133.81,88.45,138.35,360.61,Single-ply,SBD,M
Boys,67.13,13,Anthony Seider,Lometa,63.64,117.93,77.11,151.95,347,Single-ply,SBD,M
Boys,67.13,14,Jose Young,Rockdale,66.54,136.08,68.04,142.88,347,Single-ply,SBD,M
Boys,67.13,15,Jd Burke,San Saba,65.14,136.08,68.04,140.61,344.73,Single-ply,SBD,M
Boys,67.13,16,Jeremeh Casiquin,Copperas Cove,63.78,117.93,65.77,154.22,337.93,Single-ply,SBD,M
Boys,67.13,17,Jett Huffman,Marble Falls,64.64,136.08,74.84,124.74,335.66,Single-ply,SBD,M
Boys,67.13,18,Louis Ramirez,San Saba,67.09,127.01,65.77,142.88,335.66,Single-ply,SBD,M
Boys,67.13,19,Fidel Castaneda,Bangs,61.28,117.93,70.31,142.88,331.12,Single-ply,SBD,M
Boys,67.13,20,Andrew Arellano,San Saba,63.78,113.4,72.57,145.15,331.12,Single-ply,SBD,M
Boys,67.13,21,Tristian Stromitis,Copperas Cove,61.28,127.01,72.57,129.27,328.85,Single-ply,SBD,M
Boys,67.13,22,Sergio Flores,Comfort,65.54,122.47,,,122.47,Single-ply,S,M
Boys,74.84,1,Michael Cornish,Lampasas,73.07,176.9,97.52,195.04,469.47,Single-ply,SBD,M
Boys,74.84,2,Carter Turner,San Saba,71.44,174.63,106.59,185.97,467.2,Single-ply,SBD,M
Boys,74.84,3,Andy Montoya,San Saba,74.43,154.22,90.72,181.44,426.38,Single-ply,SBD,M
Boys,74.84,4,Dylan Stroh,Burnet,69.99,158.76,88.45,151.95,399.16,Single-ply,SBD,M
Boys,74.84,5,Eric Agote,San Saba,71.35,140.61,95.25,161.03,396.89,Single-ply,SBD,M
Boys,74.84,6,Ismar Gonzales,Lampasas,73.03,140.61,92.99,163.29,396.89,Single-ply,SBD,M
Boys,74.84,7,Jaxson Denton,Burnet,71.62,145.15,95.25,140.61,381.02,Single-ply,SBD,M
Boys,74.84,8,Jason Andrews,Lampasas,68.72,131.54,92.99,149.69,374.21,Single-ply,SBD,M
Boys,74.84,9,Keagan Richardson,Lampasas,72.48,142.88,81.65,149.69,374.21,Single-ply,SBD,M
Boys,74.84,10,Daniel Hernandez #17,Brady,73.57,131.54,74.84,161.03,367.41,Single-ply,SBD,M
Boys,74.84,11,Dillon Schumann,Stephenville,73.48,122.47,86.18,145.15,353.8,Single-ply,SBD,M
Boys,74.84,12,Bruce Mayfield,Rockdale,72.89,117.93,86.18,127.01,331.12,Single-ply,SBD,M
Boys,74.84,13,Stacy Drayton,Copperas Cove,67.4,115.67,77.11,124.74,317.51,Single-ply,SBD,M
Boys,74.84,DQ,Jack Jerome,Lampasas,69.76,,,,,Single-ply,SBD,M
Boys,82.1,1,Luis Coronado,Llano,80.97,217.72,127.01,183.7,528.44,Single-ply,SBD,M
Boys,82.1,2,Daunte Cuffie,Lampasas,80.01,170.1,124.74,188.24,483.08,Single-ply,SBD,M
Boys,82.1,3,John Esparza,Lampasas,79.65,165.56,113.4,199.58,478.54,Single-ply,SBD,M
Boys,82.1,4,Landon Irvin,Lampasas,75.98,172.37,117.93,185.97,476.27,Single-ply,SBD,M
Boys,82.1,5,Logan Duggar,Llano,78.79,176.9,97.52,181.44,455.86,Single-ply,SBD,M
Boys,82.1,6,Grishma Pun,Burnet,78.47,156.49,106.59,163.29,426.38,Single-ply,SBD,M
Boys,82.1,7,Mason Baker,Llano,79.47,158.76,95.25,170.1,424.11,Single-ply,SBD,M
Boys,82.1,8,Payden Eason,Bangs,76.88,151.95,102.06,158.76,412.77,Single-ply,SBD,M
Boys,82.1,9,Ripley Kiser,Lampasas,82.1,156.49,88.45,149.69,394.63,Single-ply,SBD,M
Boys,82.1,10,JR Lockhart,Lampasas,82.1,142.88,83.91,158.76,385.55,Single-ply,SBD,M
Boys,82.1,11,James Hogan,Lampasas,76.25,133.81,95.25,147.42,376.48,Single-ply,SBD,M
Boys,82.1,12,Damian Cunningham,Marble Falls,80.74,124.74,90.72,151.95,367.41,Single-ply,SBD,M
Boys,82.1,13,Braeden Hopson,Lampasas,76.66,136.08,79.38,147.42,362.87,Single-ply,SBD,M
Boys,82.1,14,Ian McKinney,Lampasas,76.97,145.15,68.04,149.69,362.87,Single-ply,SBD,M
Boys,82.1,15,Tigris Stewart,Copperas Cove,78.74,120.2,95.25,147.42,362.87,Single-ply,SBD,M
Boys,82.1,16,Braden Howell,Burnet,75.39,142.88,83.91,133.81,360.61,Single-ply,SBD,M
Boys,82.1,17,Chris Remaley,Rockdale,78.24,145.15,83.91,129.27,358.34,Single-ply,SBD,M
Boys,82.1,18,Caleb Brady,Lampasas,81.65,120.2,86.18,147.42,353.8,Single-ply,SBD,M
Boys,82.1,19,Harrison Hayes,Lampasas,77.7,106.59,77.11,142.88,326.59,Single-ply,SBD,M
Boys,82.1,20,Charlie Smith,Bangs,78.65,111.13,65.77,142.88,319.78,Single-ply,SBD,M
Boys,82.1,21,Adrian Canchola,Marble Falls,75.66,120.2,70.31,124.74,315.25,Single-ply,SBD,M
Boys,82.1,22,Luke Smith,Copperas Cove,80.1,99.79,74.84,113.4,288.03,Single-ply,SBD,M
Boys,89.81,1,Michael Nguyen,Lampasas,86.32,215.46,140.61,231.33,587.4,Single-ply,SBD,M
Boys,89.81,2,Issac De La Cruz,Stephenville,85.41,210.92,117.93,206.38,535.24,Single-ply,SBD,M
Boys,89.81,3,Joseph Watson,San Saba,88.36,165.56,124.74,192.78,483.08,Single-ply,SBD,M
Boys,89.81,4,Ethan Rascoe,Lampasas,87.45,174.63,104.33,197.31,476.27,Single-ply,SBD,M
Boys,89.81,5,Colby Henry #2,Lometa,85.91,149.69,113.4,170.1,433.18,Single-ply,SBD,M
Boys,89.81,6,Blake Estes,Burnet,86.45,161.03,113.4,154.22,428.64,Single-ply,SBD,M
Boys,89.81,7,Hunter Lawrence,Bangs,83.42,170.1,83.91,154.22,408.23,Single-ply,SBD,M
Boys,89.81,8,Jaylan Brown,Copperas Cove,85.28,138.35,88.45,167.83,394.63,Single-ply,SBD,M
Boys,89.81,9,Trevor Troy,Copperas Cove,89.58,145.15,104.33,142.88,392.36,Single-ply,SBD,M
Boys,89.81,10,Ridic Meraz,Rockdale,86.91,149.69,79.38,154.22,383.29,Single-ply,SBD,M
Boys,89.81,11,Luis George,Copperas Cove,82.78,131.54,81.65,158.76,371.95,Single-ply,SBD,M
Boys,89.81,12,Hayden King,Bangs,85.18,124.74,77.11,158.76,360.61,Single-ply,SBD,M
Boys,89.81,13,Owen Seaver,Lampasas,88.22,127.01,106.59,,233.6,Single-ply,SB,M
Boys,89.81,DQ,Reese Van Hoose,Marble Falls,83.91,,,,,Single-ply,SB,M
Boys,99.79,1,Clayton Pierce,San Saba,97.93,197.31,131.54,199.58,528.44,Single-ply,SBD,M
Boys,99.79,2,Ben Walling,Llano,90.22,183.7,113.4,190.51,487.61,Single-ply,SBD,M
Boys,99.79,3,Glenn Thomas,Marble Falls,90.85,188.24,104.33,190.51,483.08,Single-ply,SBD,M
Boys,99.79,4,Michael Felan,Stephenville,95.12,163.29,111.13,181.44,455.86,Single-ply,SBD,M
Boys,99.79,5,Zach Fearn,Marble Falls,94.94,142.88,108.86,170.1,421.84,Single-ply,SBD,M
Boys,99.79,6,Wyatt Pounders,Rockdale,95.3,158.76,102.06,158.76,419.57,Single-ply,SBD,M
Boys,99.79,7,Adrian Cervantes,Stephenville,97.48,147.42,92.99,158.76,399.16,Single-ply,SBD,M
Boys,99.79,8,Genaro Arreguin,Marble Falls,95.75,147.42,83.91,151.95,383.29,Single-ply,SBD,M
Boys,99.79,9,Chris Reyes,Rockdale,93.3,140.61,77.11,151.95,369.68,Single-ply,SBD,M
Boys,99.79,10,Will Pounders,Rockdale,96.07,127.01,70.31,136.08,333.39,Single-ply,SBD,M
Boys,99.79,11,Alex Ellison,Rockdale,90.26,108.86,81.65,133.81,324.32,Single-ply,SBD,M
Boys,99.79,12,Samuel Packer,Bangs,91.22,113.4,56.7,131.54,301.64,Single-ply,SBD,M
Boys,109.77,1,Roger Craig,Burnet,109.54,233.6,167.83,249.48,650.91,Single-ply,SBD,M
Boys,109.77,2,Ray Dixon,Llano,108.36,229.06,149.69,233.6,612.35,Single-ply,SBD,M
Boys,109.77,3,Rudy Esparza,Lampasas,104.28,204.12,127.01,226.8,557.92,Single-ply,SBD,M
Boys,109.77,4,Jeremy Rodgers,Lampasas,106.5,192.78,117.93,226.8,537.51,Single-ply,SBD,M
Boys,109.77,5,Genaro Hernandez,Comfort,107.37,192.78,124.74,192.78,510.29,Single-ply,SBD,M
Boys,109.77,6,Joshua Langford,Copperas Cove,103.96,183.7,88.45,174.63,446.79,Single-ply,SBD,M
Boys,109.77,7,Cesar Reza,Brady,107.18,158.76,79.38,161.03,399.16,Single-ply,SBD,M
Boys,109.77,8,Nate Richards,Marble Falls,108.45,142.88,92.99,147.42,383.29,Single-ply,SBD,M
Boys,109.77,9,Kaden Stover,Copperas Cove,100.7,142.88,81.65,136.08,360.61,Single-ply,SBD,M
Boys,124.74,1,Dakoda Trull,Llano,115.85,331.12,188.24,260.82,780.18,Single-ply,SBD,M
Boys,124.74,2,Zac Hudgins,Burnet,115.76,226.8,138.35,219.99,585.13,Single-ply,SBD,M
Boys,124.74,3,Wyatt Chambers,Rockdale,114.44,206.38,142.88,183.7,532.97,Single-ply,SBD,M
Boys,124.74,4,Luke Williams #3,Llano,114.71,204.12,129.27,195.04,528.44,Single-ply,SBD,M
Boys,124.74,5,Heath Godfrey,Llano,118.16,183.7,102.06,183.7,469.47,Single-ply,SBD,M
Boys,124.74,6,Hayden Henry,Burnet,114.21,197.31,102.06,158.76,458.13,Single-ply,SBD,M
Boys,124.74,7,Ernesto Castaneda,Marble Falls,116.75,170.1,104.33,181.44,455.86,Single-ply,SBD,M
Boys,124.74,8,Landin Short,San Saba,116.62,163.29,117.93,158.76,439.98,Single-ply,SBD,M
Boys,124.74,9,Bryan Reza,San Saba,112.99,149.69,97.52,147.42,394.63,Single-ply,SBD,M
Boys,124.74,10,Adrian Montano,Stephenville,119.61,161.03,81.65,142.88,385.55,Single-ply,SBD,M
Boys,124.74,11,Mason Moresco,Lometa,110.95,142.88,83.91,131.54,358.34,Single-ply,SBD,M
Boys,124.74+,1,De'vonze Franklin,Snook,150.37,260.82,170.1,226.8,657.71,Single-ply,SBD,M
Boys,124.74+,2,Tony Melendez,Comfort,158.67,185.97,133.81,210.92,530.7,Single-ply,SBD,M
Boys,124.74+,3,Daniel Hildebrand,Comfort,139.12,201.85,122.47,183.7,508.02,Single-ply,SBD,M
Boys,124.74+,4,Tyler Johnson,Lampasas,139.8,204.12,102.06,195.04,501.22,Single-ply,SBD,M
Boys,124.74+,5,Dale Wright,Copperas Cove,132.95,197.31,106.59,181.44,485.34,Single-ply,SBD,M
