Division,WeightClassKg,Place,Name,Team,BodyweightKg,Best3SquatKg,Best3BenchKg,Best3DeadliftKg,TotalKg,Equipment,Event,Sex
Boys,51.71,1,Jaime Rios #2,Big Lake Reagan County,50.44,124.74,72.57,133.81,331.12,Single-ply,SBD,M
Boys,51.71,2,Lane Smith,Ozona,50.3,117.93,72.57,122.47,312.98,Single-ply,SBD,M
Boys,51.71,3,Alfredo Castillo,Andrews,49.9,120.2,49.9,138.35,308.44,Single-ply,SBD,M
Boys,51.71,4,Jorge Delgado,Andrews,45.68,88.45,47.63,92.99,229.06,Single-ply,SBD,M
Boys,51.71,5,Daniel Vela-Wences,Coahoma,49.62,77.11,47.63,90.72,215.46,Single-ply,SBD,M
Boys,55.79,1,Raul Rey,Big Lake Reagan County,54.34,185.97,86.18,183.7,455.86,Single-ply,SBD,M
Boys,55.79,2,Tony Ortiz,Big Lake Reagan County,54.57,145.15,99.79,165.56,410.5,Single-ply,SBD,M
Boys,55.79,3,Paul McMillan,Midland Classical Academy,54.93,115.67,58.97,156.49,331.12,Single-ply,SBD,M
Boys,55.79,4,Tommy Purcell,Christoval,55.07,113.4,70.31,138.35,322.05,Single-ply,SBD,M
Boys,55.79,5,Jack Blair,Midland Greenwood,53.48,61.23,102.06,111.13,274.42,Single-ply,SBD,M
Boys,55.79,6,Bernardo Romo,Eldorado,52.57,68.04,45.36,99.79,213.19,Single-ply,SBD,M
Boys,59.87,1,Miguel Arroyo,San Angelo Lake View,58.83,174.63,102.06,172.37,449.06,Single-ply,SBD,M
Boys,59.87,2,Jonathen Padilla,Stanton,59.24,172.37,92.99,158.76,424.11,Single-ply,SBD,M
Boys,59.87,3,Lucas Esparza,Andrews,59.51,165.56,86.18,154.22,405.97,Single-ply,SBD,M
Boys,59.87,4,Chris Almaguer,Stanton,58.51,142.88,95.25,147.42,385.55,Single-ply,SBD,M
Boys,59.87,5,Sergio Gonzalez,Big Lake Reagan County,59.06,147.42,72.57,149.69,369.68,Single-ply,SBD,M
Boys,59.87,6,Eloy Trevino,Eldorado,56.52,122.47,72.57,136.08,331.12,Single-ply,SBD,M
Boys,59.87,7,Clint Maurer,Iraan,56.34,113.4,68.04,136.08,317.51,Single-ply,SBD,M
Boys,59.87,8,Juan Ruiz,Sonora,58.11,138.35,65.77,113.4,317.51,Single-ply,SBD,M
Boys,59.87,9,Mason Hudgins,Coahoma,59.06,120.2,68.04,111.13,299.37,Single-ply,SBD,M
Boys,59.87,10,Cayden Ruiz,Midland Greenwood,58.29,106.59,79.38,108.86,294.84,Single-ply,SBD,M
Boys,59.87,11,Braden Waggoner,Stanton,59.51,106.59,70.31,113.4,290.3,Single-ply,SBD,M
Boys,59.87,12,Garrett Meier,Christoval,59.19,97.52,52.16,127.01,276.69,Single-ply,SBD,M
Boys,59.87,13,Robert Jerez,Midland Greenwood,58.74,106.59,45.36,99.79,251.74,Single-ply,SBD,M
Boys,59.87,14,Jaymes Cazares,Stanton,56.02,95.25,56.7,95.25,247.21,Single-ply,SBD,M
Boys,67.13,1,Christian Valles,Andrews,66.72,210.92,106.59,199.58,517.1,Single-ply,SBD,M
Boys,67.13,2,Jose Dominguez,Ozona,66.18,195.04,102.06,174.63,471.74,Single-ply,SBD,M
Boys,67.13,3,David Guerrero,Big Lake Reagan County,66.68,215.46,102.06,138.35,455.86,Single-ply,SBD,M
Boys,67.13,4,Cade Cramer,Mertzon Irion County,65.77,192.78,102.06,158.76,453.59,Single-ply,SBD,M
Boys,67.13,5,Josh Ruiz,Coahoma,64.91,147.42,95.25,154.22,396.89,Single-ply,SBD,M
Boys,67.13,6,Justin Yeager,Ozona,64.46,145.15,81.65,140.61,367.41,Single-ply,SBD,M
Boys,67.13,7,Mason Hutto,Eldorado,64.95,136.08,72.57,142.88,351.53,Single-ply,SBD,M
Boys,67.13,8,Cade Clary,Midland Classical Academy,66.81,120.2,68.04,161.03,349.27,Single-ply,SBD,M
Boys,67.13,9,Tully Flanagan,Sonora,60.51,129.27,72.57,111.13,312.98,Single-ply,SBD,M
Boys,67.13,10,Kaden Molina,Coahoma,66.54,111.13,74.84,92.99,278.96,Single-ply,SBD,M
Boys,74.84,1,Patrick Hernandez,Midland Greenwood,68.45,190.51,117.93,199.58,508.02,Single-ply,SBD,M
Boys,74.84,2,Raymond Flores,Andrews,70.35,197.31,124.74,185.97,508.02,Single-ply,SBD,M
Boys,74.84,3,Payton Polk,Christoval,74.71,188.24,102.06,197.31,487.61,Single-ply,SBD,M
Boys,74.84,4,Damian Hernandez,San Angelo Grape Creek,74.62,158.76,92.99,179.17,430.91,Single-ply,SBD,M
Boys,74.84,5,Gio Guevera,San Angelo Grape Creek,74.71,156.49,102.06,172.37,430.91,Single-ply,SBD,M
Boys,74.84,6,David Hunt,Stanton,73.21,163.29,97.52,161.03,421.84,Single-ply,SBD,M
Boys,74.84,7,Marcus Perez,Ozona,70.13,163.29,90.72,165.56,419.57,Single-ply,SBD,M
Boys,74.84,8,Braxton Chandler,Coahoma,73.16,149.69,97.52,170.1,417.3,Single-ply,SBD,M
Boys,74.84,9,Jaycee Clements,Mertzon Irion County,73.98,147.42,86.18,165.56,399.16,Single-ply,SBD,M
Boys,74.84,10,Patrick Gutierrez,Coahoma,73.3,136.08,83.91,142.88,362.87,Single-ply,SBD,M
Boys,74.84,11,Ethan Hyde,Rocksprings,73.84,133.81,79.38,140.61,353.8,Single-ply,SBD,M
Boys,74.84,12,Zachary Kidd,Midland Greenwood,71.08,120.2,83.91,136.08,340.19,Single-ply,SBD,M
Boys,74.84,13,Mario Fernandez,Sonora,73.03,115.67,83.91,131.54,331.12,Single-ply,SBD,M
Boys,74.84,14,Jarod Humphries,Midland Greenwood,73.57,124.74,74.84,129.27,328.85,Single-ply,SBD,M
Boys,74.84,15,Aaron Noriega,Sonora,73.66,106.59,74.84,115.67,297.1,Single-ply,SBD,M
Boys,74.84,DQ,Dylan Dodd,Big Lake Reagan County,74.62,,,,,Single-ply,SBD,M
Boys,,NS,Grayson Layh,Midland Classical Academy,,111.13,,,,Single-ply,SBD,M
Boys,82.1,1,Juan Baez,Sonora,80.1,272.16,142.88,238.14,653.17,Single-ply,SBD,M
Boys,82.1,2,Josue Flores,Andrews,81.56,231.33,122.47,222.26,576.06,Single-ply,SBD,M
Boys,82.1,3,Esau Flores,Andrews,81.28,206.38,140.61,213.19,560.19,Single-ply,SBD,M
Boys,82.1,4,Devin Mora,Andrews,77.84,219.99,117.93,188.24,526.17,Single-ply,SBD,M
Boys,82.1,5,Issahia Valenzuela,Big Lake Reagan County,81.87,213.19,104.33,204.12,521.63,Single-ply,SBD,M
Boys,82.1,6,Carter Christensen,San Angelo Lake View,81.42,181.44,133.81,192.78,508.02,Single-ply,SBD,M
Boys,82.1,7,Juan Saucedo,Big Lake Reagan County,81.37,195.04,115.67,192.78,503.49,Single-ply,SBD,M
Boys,82.1,8,Frankie Villanueva,Eldorado,75.34,204.12,90.72,204.12,498.95,Single-ply,SBD,M
Boys,82.1,9,Christian DeLuna,Big Lake Reagan County,81.37,197.31,106.59,190.51,494.42,Single-ply,SBD,M
Boys,82.1,10,Tim Avila,Stanton,77.02,195.04,111.13,174.63,480.81,Single-ply,SBD,M
Boys,82.1,11,Noel Perez,Big Lake Reagan County,80.74,206.38,95.25,170.1,471.74,Single-ply,SBD,M
Boys,82.1,12,Ethan Quaid,Stanton,82.1,167.83,108.86,181.44,458.13,Single-ply,SBD,M
Boys,82.1,13,Fernando Zapata,Midland Greenwood,79.02,181.44,104.33,154.22,439.98,Single-ply,SBD,M
Boys,82.1,14,Gaven DeLeon,San Angelo Grape Creek,75.16,158.76,79.38,181.44,419.57,Single-ply,SBD,M
Boys,82.1,15,Modesto Resendez,San Angelo Lake View,75.48,154.22,104.33,149.69,408.23,Single-ply,SBD,M
Boys,82.1,16,Carlos Cantu,Ozona,75.11,167.83,83.91,147.42,399.16,Single-ply,SBD,M
Boys,82.1,17,Teaggan DeLeon,San Angelo Grape Creek,78.93,136.08,88.45,158.76,383.29,Single-ply,SBD,M
Boys,82.1,DQ,Jesse Edgar,Mertzon Irion County,79.88,,,,,Single-ply,SBD,M
Boys,89.81,1,Ethan Coleman,Midland Greenwood,87.23,256.28,158.76,226.8,641.83,Single-ply,SBD,M
Boys,89.81,2,Keegan Dobbs,Coahoma,89.72,224.53,124.74,215.46,564.72,Single-ply,SBD,M
Boys,89.81,3,Justin Gonzales,Andrews,88.99,219.99,145.15,192.78,557.92,Single-ply,SBD,M
Boys,89.81,4,Blake Miller,Mertzon Irion County,88.45,188.24,156.49,195.04,539.77,Single-ply,SBD,M
Boys,89.81,5,Kodee Warriner,Big Lake Reagan County,85.05,188.24,111.13,219.99,519.36,Single-ply,SBD,M
Boys,89.81,6,Mykel Sevier,San Angelo Lake View,86.68,197.31,140.61,149.69,487.61,Single-ply,SBD,M
Boys,89.81,7,Austin Barrera,Rocksprings,89.09,197.31,83.91,183.7,464.93,Single-ply,SBD,M
Boys,89.81,8,Cesar Garcia,Eldorado,86,163.29,86.18,185.97,435.45,Single-ply,SBD,M
Boys,89.81,9,Tony Hatfield,Stanton,86.14,181.44,102.06,149.69,433.18,Single-ply,SBD,M
Boys,89.81,10,Javier Hernandez,Iraan,88.31,174.63,77.11,181.44,433.18,Single-ply,SBD,M
Boys,99.79,1,Octavio Frausto,Andrews,97.7,254.01,140.61,217.72,612.35,Single-ply,SBD,M
Boys,99.79,2,Nico Ortiz,Big Lake Reagan County,97.52,233.6,142.88,222.26,598.74,Single-ply,SBD,M
Boys,99.79,3,Connor McDonald,Midland Greenwood,99.43,242.67,138.35,195.04,576.06,Single-ply,SBD,M
Boys,99.79,4,Isaac Murillo,Coahoma,93.98,204.12,115.67,208.65,528.44,Single-ply,SBD,M
Boys,99.79,5,Zack Schneider,Coahoma,94.21,188.24,124.74,192.78,505.76,Single-ply,SBD,M
Boys,99.79,6,Petronillo Bustamante,Andrews,97.43,206.38,113.4,185.97,505.76,Single-ply,SBD,M
Boys,109.77,1,Tristan Ortiz,Big Lake Reagan County,109.41,303.91,161.03,283.5,748.43,Single-ply,SBD,M
Boys,109.77,2,Joel Estrella,Andrews,108.5,251.74,149.69,226.8,628.23,Single-ply,SBD,M
Boys,109.77,3,Bobby Zambrano,Coahoma,109.18,238.14,179.17,210.92,628.23,Single-ply,SBD,M
Boys,109.77,4,Christian Bell,Midland Greenwood,102.06,240.4,145.15,229.06,614.62,Single-ply,SBD,M
Boys,109.77,5,Logan Sanders,San Angelo Lake View,103.24,226.8,145.15,240.4,612.35,Single-ply,SBD,M
Boys,109.77,6,Cameron Burger,Midland Greenwood,104.69,238.14,131.54,217.72,587.4,Single-ply,SBD,M
Boys,109.77,7,Ashton Smith #2,Stanton,100.65,235.87,133.81,208.65,578.33,Single-ply,SBD,M
Boys,109.77,8,Hunter Wheeler,Sonora,103.24,240.4,127.01,204.12,571.53,Single-ply,SBD,M
Boys,109.77,9,Nathaniel Whitmore,Forsan,104.51,226.8,127.01,210.92,564.72,Single-ply,SBD,M
Boys,109.77,10,Kyle Lewis,Ozona,101.15,204.12,136.08,204.12,544.31,Single-ply,SBD,M
Boys,109.77,11,Justin Glass,Big Lake Reagan County,107.23,199.58,106.59,176.9,483.08,Single-ply,SBD,M
Boys,109.77,12,Grayson Glidewell,Coahoma,105.51,181.44,115.67,136.08,433.18,Single-ply,SBD,M
Boys,109.77,13,Jacob Palacio,Rocksprings,107.95,174.63,83.91,172.37,430.91,Single-ply,SBD,M
Boys,124.74,1,Albert Arispe,Eldorado,119.98,258.55,154.22,244.94,657.71,Single-ply,SBD,M
Boys,124.74,2,Gabriel Marin,Andrews,115.94,249.48,154.22,213.19,616.89,Single-ply,SBD,M
Boys,124.74,3,Aries Gilbert,Forsan,114.4,192.78,127.01,197.31,517.1,Single-ply,SBD,M
Boys,124.74,4,Justin Marsh,Coahoma,119.93,176.9,97.52,215.46,489.88,Single-ply,SBD,M
Boys,124.74,5,Cameron Allen,Forsan,111.27,188.24,106.59,181.44,476.27,Single-ply,SBD,M
Boys,124.74,6,Brandon McLester,San Angelo Lake View,116.89,154.22,113.4,142.88,410.5,Single-ply,SBD,M
Boys,124.74,DQ,Jake Patterson,Forsan,120.56,181.44,113.4,,,Single-ply,SBD,M
Boys,124.74,DQ,Jason Carrilo,Rocksprings,122.56,285.76,156.49,,,Single-ply,SBD,M
Boys,124.74+,1,Alejandro Gonzales,Coahoma,169.28,260.82,165.56,195.04,621.42,Single-ply,SBD,M
Boys,124.74+,2,Xosue Duran,San Angelo Lake View,169.64,240.4,124.74,226.8,591.94,Single-ply,SBD,M
Boys,124.74+,3,Ethan Sanchez #1,San Angelo Lake View,137.89,197.31,167.83,208.65,573.79,Single-ply,SBD,M
Boys,124.74+,4,Dorien Enriquez,Rocksprings,135.44,226.8,104.33,217.72,548.85,Single-ply,SBD,M
Boys,124.74+,5,Keano Perez,Ozona,125.65,210.92,106.59,213.19,530.7,Single-ply,SBD,M
Boys,124.74+,6,Antonio Ronquillo,San Angelo Lake View,136.89,170.1,124.74,142.88,437.72,Single-ply,SBD,M
Boys,124.74+,DQ,Alfredo Enriquez,Rocksprings,159.12,,,,,Single-ply,SBD,M
Boys,,NS,Leandro Gonzales,Rocksprings,,,,,,Single-ply,SBD,M
Boys,,NS,Nick Billington,Mertzon Irion County,,,,,,Single-ply,SBD,M
Boys,,NS,Aaron Olivas,Andrews,,,,,,Single-ply,SBD,M
Boys,,NS,Ky Kemper,Coahoma,,,,,,Single-ply,SBD,M
Boys,,NS,Ethan Biddison,Coahoma,,,,,,Single-ply,SBD,M
Boys,,NS,Damian Rains,Coahoma,,,,,,Single-ply,SBD,M
Boys,,NS,David Fava,Christoval,,,,,,Single-ply,SBD,M
Boys,,NS,Isa Vasquez #1,Eldorado,,,,,,Single-ply,SBD,M
Boys,,NS,Eric Reyes,Eldorado,,,,,,Single-ply,SBD,M
Boys,,NS,Korbin Covarrubiaz,Eldorado,,,,,,Single-ply,SBD,M
Boys,,NS,Christian Galindo,Big Lake Reagan County,,,,,,Single-ply,SBD,M
Boys,,NS,Isaiah Perez,Big Lake Reagan County,,,,,,Single-ply,SBD,M
Boys,,NS,Emiliano Hernandez,Eldorado,,,,,,Single-ply,SBD,M
Boys,,NS,Garrett Hariman,Eldorado,,,,,,Single-ply,SBD,M
Boys,,NS,Roberto Perez,Stanton,,,,,,Single-ply,SBD,M
Boys,,NS,Seth Edwards,Sonora,,,,,,Single-ply,SBD,M
Boys,,NS,Alex Blanco,San Angelo Lake View,,,,,,Single-ply,SBD,M
Boys,,NS,Ayden McGuire,San Angelo Lake View,,,,,,Single-ply,SBD,M
Boys,,NS,Anthony Montez,Stanton,,,,,,Single-ply,SBD,M
