Place,Name,Sex,Event,BirthDate,Age,Division,Equipment,WeightClassKg,BodyweightKg,Squat1Kg,Squat2Kg,Squat3Kg,Best3SquatKg,Bench1Kg,Bench2Kg,Bench3Kg,Best3BenchKg,Deadlift1Kg,Deadlift2Kg,Deadlift3Kg,Best3DeadliftKg,TotalKg
1,Elli Fountoukidou,F,SBD,1993-07-18,30,Open,Raw,52,51,90,-95,100,100,62.5,67.5,70,70,115,120,125,125,295
2,Georgia Bouchti,F,SBD,1998-10-31,25,Open,Raw,52,51,-90,90,95,95,50,52.5,55,55,110,120,125,125,275
3,Eirini Panagioti,F,SBD,1994-07-02,29,Open,Raw,52,49.6,-75,-77.5,77.5,77.5,35,37.5,40,40,112.5,117.5,122.5,122.5,240
4,Vasiliki Yfanti-Toli,F,SBD,1992-07-01,31,Open,Raw,52,49.8,70,,,70,35,42.5,-50,42.5,100,105,120,120,232.5
DQ,Athanasia Damaskou,F,SBD,1998-07-03,25,Open,Raw,52,51.2,-90,-90,-90,,40,45,-55,45,90,100,107.5,107.5,
1,Mary Tsibi,F,SBD,1971-03-09,52,Masters 50-54,Raw,56,55.1,135,140,145,145,87.5,,,87.5,145,155,162.5,162.5,395
1,Mary Tsibi,F,SBD,1971-03-09,52,Open,Raw,56,55.1,135,140,145,145,87.5,,,87.5,145,155,162.5,162.5,395
1,Sofia Andreikou,F,SBD,1989-09-11,34,Open,Raw,60,59.6,112.5,-115,-115,112.5,62.5,-67.5,,62.5,142.5,147.5,-152.5,147.5,322.5
1,Dimitra Rousou,F,SBD,1992-12-24,30,Open,Raw,67.5,65.7,90,100,110,110,-60,60,-62.5,60,125,135,145,145,315
1,Albina Aizharikova,F,SBD,2001-05-08,22,Juniors 20-23,Wraps,82.5,80.5,110,120,130,130,37.5,42.5,-47.5,42.5,105,115,127.5,127.5,300
DQ,Iwanna Armaou,F,SBD,1990-07-06,33,Open,Raw,75,68.1,140,145,-150,145,62.5,65,67.5,67.5,-160,-160,-160,,
1,Nikolaos Pantelidis,M,SBD,2004-08-26,19,Juniors 15-19,Raw,75,73.3,-185,190,-200,190,107.5,115,122.5,122.5,210,222.5,232.5,232.5,545
1,Kladis Nikolaos,M,SBD,1994-03-29,29,Open,Raw,75,74.1,205,215,225,225,-137.5,-142.5,142.5,142.5,282.5,305,-320,305,672.5
1,Paraskevas Angatheris,M,SBD,1973-06-12,50,Masters 50-54,Raw,75,73.4,110,120,130,130,77.5,82.5,85,85,120,135,150,150,365
1,Alexios Moysidis,M,SBD,2004-09-13,19,Juniors 15-19,Raw,82.5,82.4,180,-190,-200,180,95,105,-110,105,160,170,-185,170,455
1,Georgios Zervakis,M,SBD,2003-01-25,20,Juniors 20-23,Raw,82.5,79.2,175,-185,-195,175,135,142.5,150,150,160,172.5,-180,172.5,497.5
2,Basilis-Xerki Roko,M,SBD,2003-10-09,20,Juniors 20-23,Raw,82.5,80.7,-135,-145,145,145,85,90,92.5,92.5,-185,200,210,210,447.5
1,Ilias Chatzialexis,M,SBD,1971-02-22,52,Masters 50-54,Raw,82.5,78.5,125,-137.5,-150,125,80,85,87.5,87.5,185,-197.5,-197.5,185,397.5
1,Evangelos Stamelos,M,SBD,1990-09-18,33,Open,Raw,82.5,81.4,167.5,175,-177.5,175,117.5,122.5,125,125,225,235,-242.5,235,535
2,Georgios Tsianakas,M,SBD,1992-03-08,31,Open,Raw,82.5,81.4,160,165,-170,165,-130,130,132.5,132.5,210,215,225,225,522.5
3,Nikolaos Venieris,M,SBD,1987-09-28,36,Open,Raw,82.5,82.3,137.5,150,157.5,157.5,125,135,140,140,165,185,200,200,497.5
4,Yannis Kouparitsas,M,SBD,1993-01-08,30,Open,Raw,82.5,81.4,142.5,-147.5,150,150,110,-115,115,115,185,200,207.5,207.5,472.5
1,Kyriakos Kostopoulos,M,SBD,2004-12-21,18,Juniors 15-19,Raw,90,89.8,220,235,-250,235,140,150,,150,260,280,-300,280,665
1,Kyriakos Kostopoulos,M,SBD,2004-12-21,18,Open,Raw,90,89.8,220,235,-250,235,140,150,,150,260,280,-300,280,665
1,Kyriakos Grigoropoulos,M,SBD,1962-03-03,61,Masters 60-64,Wraps,90,87.8,165,180,190,190,90,95,-100,95,205,215,225,225,510
1,Konstantinos Eklektos,M,SBD,2002-11-05,21,Juniors 20-23,Raw,100,98.8,220,-230,-230,220,150,-160,-160,150,220,222.5,235,235,605
2,Spyros Kourakos,M,SBD,2003-10-03,20,Juniors 20-23,Raw,100,94.9,170,180,-185,180,95,100,105,105,225,-240,-250,225,510
1,Thanasis Argiropoulos,M,SBD,1992-09-19,31,Open,Raw,100,94.8,-160,167.5,175,175,-130,137.5,140,140,235,255,-265,255,570
1,Vasilis Chatzis,M,SBD,1996-03-04,27,Open,Wraps,100,96.6,-260,260,280,280,-150,160,167.5,167.5,260,-280,300,300,747.5
1,Dimitrios Belevratis,M,SBD,1980-02-26,43,Masters 40-44,Wraps,100,93.6,160,-170,-170,160,100,110,,110,180,190,,190,460
1,Christos Gkiokas,M,SBD,1955-07-05,68,Masters 65-69,Wraps,100,97,80,100,120,120,80,85,-87.5,85,100,-115,125,125,330
1,Alexandru Dogotari,M,SBD,1995-09-21,28,Open,Raw,110,107.3,127.5,140,145,145,115,122.5,127.5,127.5,185,200,210,210,482.5
1,Ilias Bampatsikos,M,SBD,1997-01-31,26,Open,Raw,125,112,240,260,-270,260,170,180,185,185,250,265,-280,265,710
2,Nikolaos Skondras,M,SBD,1997-02-26,26,Open,Raw,125,113.8,215,230,240,240,145,155,162.5,162.5,250,265,280,280,682.5
1,Georgios Rantos,M,SBD,1988-10-14,35,Open,Wraps,125,125,290,-305,305,305,180,187.5,192.5,192.5,265,280,,280,777.5
1,Lefteris Eleftheriou,M,SBD,1981-06-09,42,Masters 40-44,Wraps,140,132.2,217.5,235,245,245,152.5,162.5,165,165,230,-250,,230,640
